stm32mp1xx_hal_msp.c:65:6:HAL_MspInit	4	static
stm32mp1xx_hal_msp.c:84:6:HAL_IPCC_MspInit	16	static
stm32mp1xx_hal_msp.c:111:6:HAL_IPCC_MspDeInit	16	static
stm32mp1xx_hal_msp.c:137:6:HAL_I2C_MspInit	392	static
stm32mp1xx_hal_msp.c:191:6:HAL_I2C_MspDeInit	16	static
