{
    "description": "UEFI firmware for arm",
    "interface-types": [
        "uefi"
    ],
    "mapping": {
        "device": "flash",
        "executable": {
            "filename": "/home/disruptive/STM32MPU_workspace/STM32MP15-Ecosystem-v2.1.0/Developer-Package/SDK/sysroots/x86_64-ostl_sdk-linux/usr/share/qemu/edk2-arm-code.fd",
            "format": "raw"
        },
        "nvram-template": {
            "filename": "/home/disruptive/STM32MPU_workspace/STM32MP15-Ecosystem-v2.1.0/Developer-Package/SDK/sysroots/x86_64-ostl_sdk-linux/usr/share/qemu/edk2-arm-vars.fd",
            "format": "raw"
        }
    },
    "targets": [
        {
            "architecture": "arm",
            "machines": [
                "virt-*"
            ]
        }
    ],
    "features": [
        "verbose-static"
    ],
    "tags": [

    ]
}
